# Blender v2.79 (sub 0) OBJ File: 'Book.blend'
# www.blender.org
mtllib Book.mtl
o Cube
v 1.000000 0.000000 -0.164391
v 1.000000 0.000000 0.300000
v -1.000000 0.000000 0.300000
v -1.000000 0.000000 -0.164391
v 1.000000 2.000000 -0.164391
v 0.999999 2.000000 0.300001
v -1.000000 2.000000 0.300000
v -1.000000 2.000000 -0.164391
v 1.134777 2.000000 0.067805
v 1.134777 0.000000 0.067805
v 1.102564 0.000000 0.183902
v 1.102564 0.000000 -0.048293
v 1.102564 2.000000 0.183903
v 1.102564 2.000000 -0.048293
v 1.102564 0.000000 0.183902
v 1.102564 2.000000 0.183903
vn 0.0000 -1.0000 0.0000
vn 0.0000 1.0000 0.0000
vn 0.7494 -0.0000 0.6621
vn -0.0000 -0.0000 1.0000
vn -1.0000 -0.0000 -0.0000
vn 0.0000 0.0000 -1.0000
vn 0.9636 0.0000 0.2674
vn 0.9636 0.0000 -0.2674
vn 0.7494 0.0000 -0.6621
usemtl Material
s off
f 1//1 12//1 10//1 15//1 2//1 3//1 4//1
f 5//2 8//2 7//2 6//2 16//2 9//2 14//2
f 6//3 2//3 15//3 16//3
f 2//4 6//4 7//4 3//4
f 3//5 7//5 8//5 4//5
f 5//6 1//6 4//6 8//6
f 15//7 10//7 9//7 16//7
f 9//8 10//8 12//8 14//8
f 5//9 14//9 12//9 1//9
l 11 2
l 13 6
l 10 11
l 9 13
l 11 15
l 13 16
