%YAML 1.1
%TAG !u! tag:unity3d.com,2011:
--- !u!1045 &1
EditorBuildSettings:
  m_ObjectHideFlags: 0
  serializedVersion: 2
  m_Scenes:
  - enabled: 1
    path: Assets/Scene1.unity
    guid: d98f2fa764dfb13429b061c5119354d8
  m_configObjects: {}
